{"uuid":"a5c4d195-bf67-48d5-8528-d53506d06b26","name":"GET /api/users?page=2","historyId":"cba7b4b441607d271f78f09bd0c15259:d41d8cd98f00b204e9800998ecf8427e","status":"failed","statusDetails":{"message":"Error: expect(received).toHaveProperty(path, value)\n\nExpected path: \"id\"\nReceived path: []\n\nExpected value: 7\nReceived value: {\"data\": [{\"avatar\": \"https://reqres.in/img/faces/7-image.jpg\", \"email\": \"michael.lawson@reqres.in\", \"first_name\": \"Michael\", \"id\": 7, \"last_name\": \"Lawson\"}, {\"avatar\": \"https://reqres.in/img/faces/8-image.jpg\", \"email\": \"lindsay.ferguson@reqres.in\", \"first_name\": \"Lindsay\", \"id\": 8, \"last_name\": \"Ferguson\"}, {\"avatar\": \"https://reqres.in/img/faces/9-image.jpg\", \"email\": \"tobias.funke@reqres.in\", \"first_name\": \"Tobias\", \"id\": 9, \"last_name\": \"Funke\"}, {\"avatar\": \"https://reqres.in/img/faces/10-image.jpg\", \"email\": \"byron.fields@reqres.in\", \"first_name\": \"Byron\", \"id\": 10, \"last_name\": \"Fields\"}, {\"avatar\": \"https://reqres.in/img/faces/11-image.jpg\", \"email\": \"george.edwards@reqres.in\", \"first_name\": \"George\", \"id\": 11, \"last_name\": \"Edwards\"}, {\"avatar\": \"https://reqres.in/img/faces/12-image.jpg\", \"email\": \"rachel.howell@reqres.in\", \"first_name\": \"Rachel\", \"id\": 12, \"last_name\": \"Howell\"}], \"page\": 2, \"per_page\": 6, \"support\": {\"text\": \"To keep ReqRes free, contributions towards server costs are appreciated!\", \"url\": \"https://reqres.in/#support-heading\"}, \"total\": 12, \"total_pages\": 2}","trace":"Error: expect(received).toHaveProperty(path, value)\n\nExpected path: \"id\"\nReceived path: []\n\nExpected value: 7\nReceived value: {\"data\": [{\"avatar\": \"https://reqres.in/img/faces/7-image.jpg\", \"email\": \"michael.lawson@reqres.in\", \"first_name\": \"Michael\", \"id\": 7, \"last_name\": \"Lawson\"}, {\"avatar\": \"https://reqres.in/img/faces/8-image.jpg\", \"email\": \"lindsay.ferguson@reqres.in\", \"first_name\": \"Lindsay\", \"id\": 8, \"last_name\": \"Ferguson\"}, {\"avatar\": \"https://reqres.in/img/faces/9-image.jpg\", \"email\": \"tobias.funke@reqres.in\", \"first_name\": \"Tobias\", \"id\": 9, \"last_name\": \"Funke\"}, {\"avatar\": \"https://reqres.in/img/faces/10-image.jpg\", \"email\": \"byron.fields@reqres.in\", \"first_name\": \"Byron\", \"id\": 10, \"last_name\": \"Fields\"}, {\"avatar\": \"https://reqres.in/img/faces/11-image.jpg\", \"email\": \"george.edwards@reqres.in\", \"first_name\": \"George\", \"id\": 11, \"last_name\": \"Edwards\"}, {\"avatar\": \"https://reqres.in/img/faces/12-image.jpg\", \"email\": \"rachel.howell@reqres.in\", \"first_name\": \"Rachel\", \"id\": 12, \"last_name\": \"Howell\"}], \"page\": 2, \"per_page\": 6, \"support\": {\"text\": \"To keep ReqRes free, contributions towards server costs are appreciated!\", \"url\": \"https://reqres.in/#support-heading\"}, \"total\": 12, \"total_pages\": 2}\n    at D:\\Paywright_polestar\\Playwright_polestar\\api.test.ts:11:27"},"stage":"finished","steps":[{"status":"passed","statusDetails":{},"stage":"finished","steps":[],"attachments":[],"parameters":[],"start":1728990292869,"name":"Before Hooks","stop":1728990292904},{"status":"passed","statusDetails":{},"stage":"finished","steps":[],"attachments":[],"parameters":[],"start":1728990293604,"name":"expect.toBe","stop":1728990293607},{"status":"failed","statusDetails":{"message":"Error: expect(received).toHaveProperty(path, value)\n\nExpected path: \"id\"\nReceived path: []\n\nExpected value: 7\nReceived value: {\"data\": [{\"avatar\": \"https://reqres.in/img/faces/7-image.jpg\", \"email\": \"michael.lawson@reqres.in\", \"first_name\": \"Michael\", \"id\": 7, \"last_name\": \"Lawson\"}, {\"avatar\": \"https://reqres.in/img/faces/8-image.jpg\", \"email\": \"lindsay.ferguson@reqres.in\", \"first_name\": \"Lindsay\", \"id\": 8, \"last_name\": \"Ferguson\"}, {\"avatar\": \"https://reqres.in/img/faces/9-image.jpg\", \"email\": \"tobias.funke@reqres.in\", \"first_name\": \"Tobias\", \"id\": 9, \"last_name\": \"Funke\"}, {\"avatar\": \"https://reqres.in/img/faces/10-image.jpg\", \"email\": \"byron.fields@reqres.in\", \"first_name\": \"Byron\", \"id\": 10, \"last_name\": \"Fields\"}, {\"avatar\": \"https://reqres.in/img/faces/11-image.jpg\", \"email\": \"george.edwards@reqres.in\", \"first_name\": \"George\", \"id\": 11, \"last_name\": \"Edwards\"}, {\"avatar\": \"https://reqres.in/img/faces/12-image.jpg\", \"email\": \"rachel.howell@reqres.in\", \"first_name\": \"Rachel\", \"id\": 12, \"last_name\": \"Howell\"}], \"page\": 2, \"per_page\": 6, \"support\": {\"text\": \"To keep ReqRes free, contributions towards server costs are appreciated!\", \"url\": \"https://reqres.in/#support-heading\"}, \"total\": 12, \"total_pages\": 2}","trace":"Error: expect(received).toHaveProperty(path, value)\n\nExpected path: \"id\"\nReceived path: []\n\nExpected value: 7\nReceived value: {\"data\": [{\"avatar\": \"https://reqres.in/img/faces/7-image.jpg\", \"email\": \"michael.lawson@reqres.in\", \"first_name\": \"Michael\", \"id\": 7, \"last_name\": \"Lawson\"}, {\"avatar\": \"https://reqres.in/img/faces/8-image.jpg\", \"email\": \"lindsay.ferguson@reqres.in\", \"first_name\": \"Lindsay\", \"id\": 8, \"last_name\": \"Ferguson\"}, {\"avatar\": \"https://reqres.in/img/faces/9-image.jpg\", \"email\": \"tobias.funke@reqres.in\", \"first_name\": \"Tobias\", \"id\": 9, \"last_name\": \"Funke\"}, {\"avatar\": \"https://reqres.in/img/faces/10-image.jpg\", \"email\": \"byron.fields@reqres.in\", \"first_name\": \"Byron\", \"id\": 10, \"last_name\": \"Fields\"}, {\"avatar\": \"https://reqres.in/img/faces/11-image.jpg\", \"email\": \"george.edwards@reqres.in\", \"first_name\": \"George\", \"id\": 11, \"last_name\": \"Edwards\"}, {\"avatar\": \"https://reqres.in/img/faces/12-image.jpg\", \"email\": \"rachel.howell@reqres.in\", \"first_name\": \"Rachel\", \"id\": 12, \"last_name\": \"Howell\"}], \"page\": 2, \"per_page\": 6, \"support\": {\"text\": \"To keep ReqRes free, contributions towards server costs are appreciated!\", \"url\": \"https://reqres.in/#support-heading\"}, \"total\": 12, \"total_pages\": 2}\n    at D:\\Paywright_polestar\\Playwright_polestar\\api.test.ts:11:27"},"stage":"finished","steps":[],"attachments":[],"parameters":[],"start":1728990293614,"name":"expect.toHaveProperty","stop":1728990293626},{"status":"passed","statusDetails":{},"stage":"finished","steps":[],"attachments":[],"parameters":[],"start":1728990293630,"name":"After Hooks","stop":1728990293643},{"status":"passed","statusDetails":{},"stage":"finished","steps":[],"attachments":[],"parameters":[],"start":1728990293645,"name":"Worker Cleanup","stop":1728990293649}],"attachments":[],"parameters":[],"labels":[{"name":"language","value":"javascript"},{"name":"framework","value":"playwright"},{"name":"package","value":"api.test.ts"},{"name":"titlePath","value":" >  > api.test.ts > API Testing"},{"name":"host","value":"DESKTOP-KGD8LKN"},{"name":"thread","value":"pid-7188-worker-0"},{"name":"suite","value":"api.test.ts"},{"name":"subSuite","value":"API Testing"}],"links":[],"start":1728990292850,"testCaseId":"cba7b4b441607d271f78f09bd0c15259","fullName":"api.test.ts:7:7","stop":1728990293610}